<?xml version="1.0" encoding="utf-8"?>
<!-- Generator: Adobe Illustrator 23.0.0, SVG Export Plug-In . SVG Version: 6.00 Build 0)  -->
<svg version="1.1" id="图层_2" xmlns="http://www.w3.org/2000/svg" xmlns:xlink="http://www.w3.org/1999/xlink" x="0px" y="0px"
	 viewBox="0 0 16 16" style="enable-background:new 0 0 16 16;" xml:space="preserve">
<style type="text/css">
	.st0{fill-rule:evenodd;clip-rule:evenodd;}
</style>
<path class="st0" d="M13.3,16H2.7c-0.7,0-1.2-0.5-1.2-1.2V12h13v2.8C14.5,15.5,14,16,13.3,16z M1.5,7c0-0.7,0.3-1,1-1h1V4
	c0-2.3,2.2-4,4.5-4s4.5,1.7,4.5,4v2h1c0.7,0,1,0.3,1,1v3h-13V7z M5.5,6h5V4c0-1.3-1.2-2.4-2.5-2.4c-1.3,0-2.5,1-2.5,2.4V6z"/>
</svg>
