<?xml version="1.0" encoding="utf-8"?>
<!-- Generator: Adobe Illustrator 14.0.0, SVG Export Plug-In . SVG Version: 6.00 Build 43363)  -->
<!DOCTYPE svg PUBLIC "-//W3C//DTD SVG 1.1//EN" "http://www.w3.org/Graphics/SVG/1.1/DTD/svg11.dtd">
<svg version="1.1" id="图层_1" xmlns="http://www.w3.org/2000/svg" xmlns:xlink="http://www.w3.org/1999/xlink" x="0px" y="0px"
	 width="16px" height="16px" viewBox="0 0 16 16" enable-background="new 0 0 16 16" xml:space="preserve">
<g>
	<path d="M7.032,12.971c0.471-0.283,1.242-0.283,1.713,0l3.229,1.949c0.471,0.284,0.756,0.078,0.631-0.457l-0.854-3.68
		c-0.125-0.535,0.113-1.27,0.528-1.629l2.854-2.473c0.416-0.36,0.309-0.693-0.24-0.741l-3.761-0.322
		c-0.548-0.048-1.172-0.5-1.386-1.007L8.278,1.148c-0.214-0.507-0.565-0.507-0.779,0L6.031,4.611
		C5.817,5.118,5.193,5.57,4.646,5.618L0.885,5.94c-0.548,0.048-0.656,0.381-0.24,0.741l2.853,2.473
		c0.416,0.359,0.654,1.094,0.529,1.629l-0.855,3.68c-0.125,0.535,0.159,0.741,0.63,0.457L7.032,12.971z"/>
</g>
</svg>
